[
    {
        "id": 1,
        "key": "-----BEGIN PGP PUBLIC KEY BLOCK-----\r\n\r\nxsBNBFVjnlIBCACibzXOLCiZiL2oyzYUaTOCkYnSUhymg3pdbfKtd4mpBa58xKBj\r\nt1pTHVpw3Sk03wmzhM/Ndlt1AV2YhLv++83WKr+gAHFYFiCV/tnY8bx3HqvVoy8O\r\nCfxWhw4QZK7+oYzVmJj8ZJm3ZjOC4pzuegNWlNLCUdZDx9OKlHVXLCX1iUbjdYWa\r\nqKV6tdV8hZolkbyjedQgrpvoWyeSHHpwHF7yk4gNJWMMI5rpcssL7i6mMXb/sDzO\r\nVaAtU5wiVducsOa01InRFf7QSTxoAm6Xy0PGv/k48M6xCALa9nY+BzlOv47jUT57\r\nvilf4Szy9dKD0v9S0mQ+IHB+gNukWrnwtXx5ABEBAAHNFm5hbWUgKGNvbW1lbnQp\r\nIDxlbUBpbD7CwHUEEwECACkFAlVjnlIJEINgJNgv009/AhsDAhkBBgsJCAcDAgYV\r\nCAIJCgsEFgIDAQAAxqMIAFBHuBA8P1v8DtHonIK8Lx2qU23t8Mh68HBIkSjk2H7/\r\noO2cDWCw50jZ9D91PXOOyMPvBWV2IE3tARzCvnNGtzEFRtpIEtZ0cuctxeIF1id5\r\ncrfzdMDsmZyRHAOoZ9VtuD6mzj0ybQWMACb7eIHjZDCee3Slh3TVrLy06YRdq2I4\r\nbjMOPePtK5xnIpHGpAXkB3IONxyITpSLKsA4hCeP7gVvm7r7TuQg1ygiUBlWbBYn\r\niE5ROzqZjG1s7dQNZK/riiU2umGqGuwAb2IPvNiyuGR3cIgRE4llXH/rLuUlspAp\r\no4nlxaz65VucmNbN1aMbDXLJVSqR1DuE00vEsL1AItI=\r\n=XQoy\r\n-----END PGP PUBLIC KEY BLOCK-----",
        "created_at": "2017-09-05T09:17:46.264Z"
    }
]
