{
  "alt": "dk",
  "url": "/uploads/66dbcd21ec5d24ed6ea225176098d52b/dk.png",
  "full_path": "/namespace1/project1/uploads/66dbcd21ec5d24ed6ea225176098d52b/dk.png",
  "markdown": "![dk](/uploads/66dbcd21ec5d24ed6ea225176098d52b/dk.png)"
}
