[
  {
    "id": 1,
    "username": "raymond_smith",
    "name": "Raymond Smith",
    "state": "active",
    "avatar_url": "https://www.gravatar.com/avatar/c2525a7f58ae3776070e44c106c48e15?s=80&d=identicon",
    "web_url": "http://192.168.1.8:3000/root",
    "last_activity_on": "2021-01-27",
    "membership_type": "group_member",
    "removable": true,
    "created_at": "2021-01-03T12:16:02Z"
  },
  {
    "id": 2,
    "username": "john_doe",
    "name": "John Doe",
    "state": "active",
    "avatar_url": "https://www.gravatar.com/avatar/c2525a7f58ae3776070e44c106c48e15?s=80&d=identicon",
    "web_url": "http://192.168.1.8:3000/root",
    "email": "john@example.com",
    "last_activity_on": "2021-01-25",
    "membership_type": "group_member",
    "removable": true,
    "created_at": "2021-01-04T18:46:42Z"
  },
  {
    "id": 3,
    "username": "foo_bar",
    "name": "Foo bar",
    "state": "active",
    "avatar_url": "https://www.gravatar.com/avatar/c2525a7f58ae3776070e44c106c48e15?s=80&d=identicon",
    "web_url": "http://192.168.1.8:3000/root",
    "last_activity_on": "2021-01-20",
    "membership_type": "group_invite",
    "removable": false,
    "created_at": "2021-01-09T07:12:31Z"
  }
]
